<?xml version="1.0" encoding="UTF-8" standalone="no"?>
<svg
   xmlns:dc="http://purl.org/dc/elements/1.1/"
   xmlns:cc="http://creativecommons.org/ns#"
   xmlns:rdf="http://www.w3.org/1999/02/22-rdf-syntax-ns#"
   xmlns:svg="http://www.w3.org/2000/svg"
   xmlns="http://www.w3.org/2000/svg"
   xmlns:xlink="http://www.w3.org/1999/xlink"
   xmlns:sodipodi="http://sodipodi.sourceforge.net/DTD/sodipodi-0.dtd"
   xmlns:inkscape="http://www.inkscape.org/namespaces/inkscape"
   width="194.22581mm"
   height="97.971153mm"
   viewBox="0 0 194.22581 97.971153"
   version="1.1"
   id="svg8"
   inkscape:version="1.0.2 (e86c870879, 2021-01-15)"
   sodipodi:docname="workcycle.svg">
  <defs
     id="defs2">
    <linearGradient
       inkscape:collect="always"
       id="linearGradient1022">
      <stop
         style="stop-color:#0a0a0a;stop-opacity:1"
         offset="0"
         id="stop1018" />
      <stop
         style="stop-color:#9696b4;stop-opacity:1"
         offset="1"
         id="stop1020" />
    </linearGradient>
    <linearGradient
       inkscape:collect="always"
       id="linearGradient1014">
      <stop
         style="stop-color:#7f7f96;stop-opacity:1;"
         offset="0"
         id="stop1010" />
      <stop
         style="stop-color:#7f7f96;stop-opacity:0;"
         offset="1"
         id="stop1012" />
    </linearGradient>
    <linearGradient
       inkscape:collect="always"
       id="linearGradient965">
      <stop
         style="stop-color:#416b43;stop-opacity:1"
         offset="0"
         id="stop961" />
      <stop
         style="stop-color:#4bae4d;stop-opacity:0"
         offset="1"
         id="stop963" />
    </linearGradient>
    <linearGradient
       inkscape:collect="always"
       xlink:href="#linearGradient965"
       id="linearGradient967"
       x1="56.704838"
       y1="117.38614"
       x2="212.04614"
       y2="146.34309"
       gradientUnits="userSpaceOnUse" />
    <linearGradient
       inkscape:collect="always"
       xlink:href="#linearGradient1014"
       id="linearGradient1016"
       x1="44.470173"
       y1="134.24451"
       x2="86.925852"
       y2="139.90226"
       gradientUnits="userSpaceOnUse" />
    <linearGradient
       inkscape:collect="always"
       xlink:href="#linearGradient1022"
       id="linearGradient1024"
       x1="34.079651"
       y1="131.76595"
       x2="92.213753"
       y2="156.24203"
       gradientUnits="userSpaceOnUse" />
  </defs>
  <sodipodi:namedview
     id="base"
     pagecolor="#ffffff"
     bordercolor="#666666"
     borderopacity="1.0"
     inkscape:pageopacity="0.0"
     inkscape:pageshadow="2"
     inkscape:zoom="1.4142136"
     inkscape:cx="230.92792"
     inkscape:cy="310.35065"
     inkscape:document-units="mm"
     inkscape:current-layer="g160"
     inkscape:document-rotation="0"
     showgrid="false"
     fit-margin-top="0"
     fit-margin-left="0"
     fit-margin-right="0"
     fit-margin-bottom="0"
     inkscape:window-width="1920"
     inkscape:window-height="1029"
     inkscape:window-x="1920"
     inkscape:window-y="27"
     inkscape:window-maximized="1" />
  <metadata
     id="metadata5">
    <rdf:RDF>
      <cc:Work
         rdf:about="">
        <dc:format>image/svg+xml</dc:format>
        <dc:type
           rdf:resource="http://purl.org/dc/dcmitype/StillImage" />
        <dc:title />
      </cc:Work>
    </rdf:RDF>
  </metadata>
  <g
     inkscape:label="Calque 1"
     inkscape:groupmode="layer"
     id="layer1"
     transform="translate(-11.334264,-93.034492)">
    <g
       id="g160"
       transform="translate(2.8714736,-6.8353141)">
      <path
         style="fill:#c9b88d;stroke-width:0.0846667"
         d="m 137.74879,156.59653 8.20286,-4.868 c 0,0 13.33895,0.0696 20.0469,0.0839 0.001,6.6e-4 -6.06709,4.78406 -6.06709,4.78406 z m 30.22601,0 c 1.82057,-1.5957 5.4282,-4.82448 5.42648,-4.82641 l 21.90799,3.8e-4 -5.99847,4.82603 z m -18.23669,-7.11176 6.00235,-3.55522 c 5.89374,-2.8e-4 17.69534,3.1e-4 17.69534,3.1e-4 l -4.48739,3.55248 z m 26.26677,-0.041 3.9235,-3.51499 22.75969,-0.0141 -4.51314,3.57016 z"
         id="path190"
         sodipodi:nodetypes="cccccccccccccccccccc" />
      <path
         style="fill:#b3a480;stroke-width:0.0846667"
         d="m 159.93146,156.59685 6.06818,-4.78372 -20.04799,-0.0846 c 1.26323,-0.74789 2.52323,-1.4963 3.78646,-2.24419 6.40237,-6.7e-4 19.21035,-0.001 19.21035,-0.001 l 4.48734,-3.55348 6.51933,0.004 -3.95025,3.5099 22.17005,0.0415 c 0,0 -2.86566,2.28565 -2.85962,2.28679 H 173.403 l -5.4282,4.8253 c 0,-8.2e-4 -8.04334,-5e-4 -8.04334,-5e-4 z"
         id="path188"
         sodipodi:nodetypes="ccccccccccccc" />
      <path
         style="fill:#b9a469;stroke-width:0.0846667"
         d="m 137.74879,193.93485 v -37.338 h 22.18267 v 16.93333 h 8.04334 v -16.93333 h 21.336 v 37.338 h -20.91267 v -8.04334 h -8.04333 v 8.04334 z"
         id="path186"
         sodipodi:nodetypes="ccccccccccccc" />
      <path
         style="fill:#a4925e;stroke-width:0.0846667"
         d="m 160.3548,193.93485 v -8.04334 h 8.04333 v 8.04334 z m -0.42334,-20.40467 v -16.93333 h 8.04334 v 16.93333 z"
         id="path184"
         sodipodi:nodetypes="cccccccccc" />
      <path
         style="fill:#9b8a5c;stroke-width:0.0846667"
         d="m 189.38766,193.88828 -0.0769,0.0804 4e-5,-37.37183 6.00451,-4.82528 0.0915,13.48283 2.75166,-2.62548 c 0.0165,-4.39548 0.0165,-13.14416 0.0165,-13.14416 -1.1e-4,0 4.5131,-3.57006 4.5131,-3.57006 v 15.5232 15.5232 l -4.445,5.66126 -0.0846,-13.48605 -2.83409,3.67418 -0.006,13.54666 c -1.95147,2.48355 -3.90293,4.96711 -5.8544,7.45067 l -0.0769,0.0804 z"
         id="path182"
         sodipodi:nodetypes="ccccccccccccccccc" />
      <path
         style="fill:#897a52;stroke-width:0.0846667"
         d="m 195.32213,186.32784 c 0,0 0.001,-9.01155 0.002,-13.51732 0.94469,-1.22472 2.83409,-3.67416 2.83409,-3.67416 l 0.0848,13.486 z m 0.0846,-21.07344 -0.0915,-13.48285 2.85963,-2.28679 c 3e-5,2e-5 -0.0165,13.14416 -0.0165,13.14416 z"
         id="path180"
         sodipodi:nodetypes="cccccccccc" />
      <path
         style="fill:url(#linearGradient967);fill-opacity:1;stroke-width:0.0846667"
         d="m 72.386126,192.7679 c 0.148296,0.0294 14.964287,-8.78136 14.964287,-8.78136 -32.959508,0 -76.773327,2.35925 -76.773327,-41.31071 l 15.151459,0.58642 c 0,34.83651 43.357308,33.48669 73.992065,33.48669 l 6.66241,-3.8939 24.93111,6.07261 c 0,0 -40.846837,9.9748 -58.928004,13.83983 z M 86.11212,124.00022 c -7.527345,-13.03885 -22.414322,-20.93013 -34.895569,-20.93013 -3.856722,0 -7.859472,0.58628 -10.496022,0.89616 0,0 16.475265,-4.048031 24.086595,-4.048031 18.771356,0 33.559592,17.136791 33.559592,19.888161 z"
         id="path178"
         sodipodi:nodetypes="ccccccccccccccc" />
      <path
         style="fill:#5a9058;stroke-width:0.0846667"
         d="m 72.386126,197.84096 v -5.07306 l 58.928004,-13.84025 0,3.14263 z M 8.4937419,142.76763 C 8.2296895,120.13306 27.551075,103.00365 49.991792,103.00365 c 17.777712,0 30.483679,10.67496 36.120328,20.99657 h -2.351927 c -7.585935,-12.30084 -21.704886,-19.05864 -33.777719,-19.05864 -18.409694,0 -38.221227,14.80168 -39.394606,37.73602 0.563984,41.83814 38.139781,41.22884 76.761058,41.30887 l -3.546722,2.07434 c -41.952931,0 -75.678207,-2.48607 -75.3084621,-43.29318 z"
         id="path176"
         sodipodi:nodetypes="cccccccccccccc" />
      <path
         style="fill:url(#linearGradient1016);stroke-width:0.0846667;fill-opacity:1"
         d="m 51.505824,167.01088 c -0.474511,-0.18372 -0.759048,-1.14873 -1.013582,-1.651 h -0.654544 l -0.494968,1.18534 c -0.334038,0.32339 -0.988235,0.3806 -1.186966,0.0769 -0.216648,-0.47328 -0.383228,-0.96639 -0.511156,-1.51628 -0.193117,0.0289 -0.385513,-0.004 -0.599934,-0.1264 -0.302026,0.33376 -0.604059,0.66751 -0.906091,1.00127 -0.334628,0.46022 -0.833497,0.2734 -1.078548,-0.0576 -0.257562,-0.5606 -0.37148,-1.51064 -0.18383,-1.78535 -0.641484,0.052 -2.415525,0.87508 -2.80075,-0.11969 0.05104,0.35784 -0.139939,0.54129 -0.392577,0.66506 0.233091,-0.89649 0.286567,-1.14361 0.335934,-1.50256 -8.5e-4,-0.0936 0.0013,-0.29663 -0.146558,-0.3182 0,0 0.174734,-0.003 0.203198,-0.32735 -0.552791,-0.0856 -1.091834,-0.0182 -1.709548,-0.284 -0.160699,-0.179 -0.327408,-0.35492 -0.516035,-0.4895 -0.232779,0.49367 -0.366696,0.95297 -0.399083,1.38894 0.196665,0.20226 0.352604,0.37719 0.548375,0.56578 -0.0789,0.0487 -0.157791,0.0975 -0.236686,0.1462 -0.312092,-0.0696 -0.508111,-0.31436 -0.735023,-0.52399 -0.0567,-0.6784 0.297075,-1.33708 0.591355,-1.87098 0.231276,-0.55955 0.05493,-0.97225 -0.417565,-0.97601 -0.687307,0.0527 -0.800228,-1.20221 -1.047711,-1.806 -0.169855,0.77508 -0.562345,2.0346 -0.152482,2.7148 -0.247607,0.10831 -0.448666,0.17457 -0.649429,0.1918 -0.19831,-0.12002 -0.375784,-0.33624 -0.525541,-0.59856 -0.05665,-0.60602 0.530386,-1.47256 0.851193,-2.09711 0.03334,-0.0652 0.0067,-0.16082 -0.04682,-0.24144 0.08428,0.002 0.273778,-0.0385 0.409236,-0.0729 -0.15914,-0.0675 -0.306099,-0.14269 -0.409236,-0.28755 -0.120638,0.003 -0.211036,-0.004 -0.320523,-0.004 -0.53126,-0.0261 -0.851979,-0.64261 -0.844253,-0.84425 0.02655,-0.27631 -0.03964,-0.42501 -0.01309,-0.70132 -0.126806,0.26514 -0.682103,0.82696 -0.999434,1.23331 0.08744,0.49074 0.267452,0.64713 0.6533,0.90042 -0.269708,0.0221 -0.474581,0.009 -0.676203,-0.0313 -0.324626,-0.39471 -0.382192,-0.50518 -0.382192,-1.00089 0.32646,-0.51032 0.763816,-0.9614 1.182844,-1.32766 -0.03124,-0.0814 -0.06248,-0.16282 -0.09372,-0.24423 0.147503,-0.13638 0.151208,-0.18402 0.18088,-0.33674 -1.322737,-0.34385 -1.401477,-1.2954 -0.855163,-1.96559 -0.413192,0.10341 -0.794371,0.5389 -1.086685,0.77141 -0.108582,0.34001 -0.156509,0.60181 -0.174886,0.92635 -0.131288,0.0817 -0.331801,0.12615 -0.3657,0.13635 -0.141932,-0.23977 -0.114297,-0.72706 -0.05764,-0.96519 0.492959,-0.43129 1.145467,-0.92204 1.524007,-1.3309 -0.06751,-0.19642 -0.656992,-0.82475 -1.016,-1.32386 -0.137718,-0.15635 -0.08827,-0.36226 0,-0.58568 -0.217002,0.008 -0.258167,0.24693 -0.738692,0.1694 -0.07924,0.42941 -0.0967,0.88684 -0.0089,1.24962 -0.108564,-0.0229 -0.154718,-0.034 -0.242091,-0.0643 -0.352311,-0.49812 -0.272186,-0.92502 -0.119584,-1.40433 0.631413,-0.24794 1.121419,-0.43615 1.744333,-0.67662 v -0.92472 l 0.01174,0.41998 c -0.704388,-0.45092 -1.378405,-0.51664 -2.125801,-0.94911 -0.0892,-0.49006 -0.03855,-0.67887 0.145823,-1.12397 0.668407,-0.16708 0.98913,-0.21349 1.756564,-0.50974 0.06826,-0.12077 0.03698,-0.23759 0,-0.39319 -0.409657,-0.41417 -1.298687,-0.71497 -1.687947,-1.16924 -0.04923,-0.38887 0.0595,-0.73802 0.16212,-1.10738 0.657556,-0.23142 1.345872,-0.25628 2.033876,-0.31441 0.07105,-0.15375 0.08004,-0.33138 0,-0.5606 -0.482249,-0.33975 -0.915601,-0.73729 -1.354666,-1.12945 -0.0322,-0.42986 0.139731,-0.89917 0.349294,-1.17781 0.741919,0.1611 1.518785,0.45531 2.222419,0.40491 0.189203,-0.092 0.291959,-0.31161 0.311964,-0.49434 -0.54333,-0.58874 -1.098909,-1.22441 -1.460168,-1.84327 0.141381,-0.2504 0.287912,-0.51544 0.481497,-0.76192 0.691413,0.009 1.344222,0.22799 1.73572,0.4139 l 0.596245,0.009 c 0.115422,-0.0865 0.186533,-0.22018 0.18412,-0.40412 -0.409643,-0.59761 -0.81762,-1.27309 -1.119093,-1.83704 v -0.36831 c 0.149827,-0.25185 0.33023,-0.48114 0.50806,-0.71319 0.0067,0.15142 0.143212,0.25439 0.227805,0.44343 0.629138,-0.0555 1.13636,0.37145 1.679999,0.59328 0.273354,-0.0962 0.321434,-0.20163 0.44587,-0.39155 -0.108617,-0.72448 -0.435761,-1.37657 -0.67576,-2.07007 0.0875,-0.13355 0.175004,-0.26709 0.262506,-0.40064 l 0.514845,-0.3666 c 0.04232,0.0882 0.06731,0.15573 0,0.2425 0.633397,0.43485 1.160065,0.76098 1.74477,1.12369 0.164825,-0.21862 0.376613,-0.34239 0.606255,-0.47929 0.04635,-0.56918 -0.39766,-0.9801 -0.476636,-1.69781 l -0.02475,-0.38051 c 0.21413,-0.21957 0.581613,-0.50038 0.87084,-0.68951 0.580711,0.7867 1.206288,1.37528 1.622839,1.97485 0.06307,-0.0863 0.126147,-0.17252 0.18922,-0.25878 0.148418,-0.0186 0.295913,-0.0664 0.420449,-0.20928 0.01385,-0.67578 0.02769,-1.35155 0.04154,-2.02733 0.02797,-0.12067 0.05595,-0.24133 0.08392,-0.362 0.235162,-0.0941 0.470323,-0.18819 0.705484,-0.28228 0.179811,0.19584 0.124712,0.34992 0.08268,0.59604 0.572291,0.53492 0.924712,1.09535 1.330078,1.69964 -0.02112,-0.004 -9e-4,-0.3468 -2.2e-5,-0.49767 0.183787,0.0158 0.388662,0.0186 0.537002,-0.053 0.106365,-0.6109 0.221471,-1.665 0.448342,-2.30471 0.202451,-0.038 0.520226,-0.0919 0.722677,-0.12995 0.08528,0.0853 0.170562,0.17057 0.255845,0.25585 -0.06394,0.11947 -0.12788,0.23895 -0.19182,0.35842 -0.153236,0.005 -0.306472,0.0107 -0.459708,0.016 0.865739,0.2894 1.305757,1.08955 1.476965,1.84587 h 0.675475 l 0.08594,-0.25206 c 0.20434,-0.65311 0.411603,-1.45894 0.682619,-2.00769 0.0993,-0.0899 0.198602,-0.17973 0.297903,-0.2696 0.239356,0.0322 0.478727,0.0642 0.718097,0.0963 0.01497,0.1447 -0.05204,0.26882 -0.10278,0.40105 h -0.828585 v 0.1694 c 0.30308,0.003 0.525136,0.0881 0.813557,0.16822 0.144615,0.2208 0.468222,1.245 0.476203,1.68297 0.412327,0.0878 0.744864,0.17435 0.99624,-0.1609 0.202393,-0.36258 0.560641,-0.97758 0.720333,-1.30742 0.245733,-0.0966 0.754016,0.0496 0.958273,0.29129 0.175399,0.555 0.231228,1.17529 0.18406,1.68451 0.157653,0.19323 0.257366,0.26609 0.495905,0.26609 0.119282,-0.0321 0.261146,-0.0993 0.378918,-0.2043 0.287507,-0.2631 0.707895,-0.83859 1.030181,-1.1812 0.420609,-0.14734 0.863776,0.30565 0.912624,0.55117 0.01522,0.54328 -0.09126,1.05667 -0.20448,1.58464 0.07323,0.31292 0.384855,0.55439 0.900382,0.3587 0.532156,-0.14552 0.891802,-0.64479 1.273402,-0.91762 0.346695,0.0688 0.663208,0.30325 0.835454,0.63371 -0.251898,0.90018 -0.680528,1.84456 -0.01293,2.10758 0.569357,-0.2336 1.047514,-0.609 1.502555,-0.9007 0.358758,-0.008 0.696502,0.31519 0.846667,0.58497 0.06193,0.67656 -0.369047,1.24125 -0.704754,1.78517 0.105401,0.29011 0.252879,0.50752 0.443114,0.59419 l 0.300453,-0.10886 c 0.311936,-0.084 0.860264,-0.27757 1.385524,-0.41231 0.143149,0.21065 0.295185,0.43345 0.438329,0.64411 0.0017,0.74106 -0.412709,1.24483 -0.931333,1.67877 0.03886,0.16094 0.149871,0.465 0.273475,0.65365 0.196384,0.0341 0.360148,0.0282 0.484008,-0.036 0.283398,-0.16637 0.668175,-0.19438 1.005084,-0.23538 0.41577,0.20283 0.414676,0.36825 0.362641,0.65315 0.187477,0.64501 -0.252623,1.34904 -0.700478,1.72955 0.03556,0.16188 0.07111,0.32375 0.10666,0.48563 0.686243,0.0562 1.301888,0.0843 1.841784,0.3652 0.193423,0.19832 0.268701,0.49457 0.15209,0.72148 -0.311652,0.50446 -1.09921,0.51557 -1.405916,0.93083 -8.67e-4,0.23298 -0.0017,0.46595 -0.0026,0.69893 0.697707,0.33116 1.859516,0.75393 1.862666,0.98158 v 0.47458 c -0.444067,0.33723 -0.965941,0.63775 -1.481666,0.72831 -0.204257,0.29796 -0.209923,0.71749 0.01,1.09006 0.39177,0.2107 0.783545,0.4214 1.17532,0.63209 0.170474,0.24577 0.172535,0.58017 -0.05726,0.83455 -0.403008,0.32478 -0.913101,0.46838 -1.333775,0.44423 -0.224954,0.3064 -0.222598,0.69042 -0.17529,1.00574 0.531376,0.39007 1.140779,0.70659 1.207898,1.17022 l -0.16272,0.49104 c -0.559311,-0.0106 -1.096329,0.1117 -1.640024,0.2242 -0.254643,0.35363 -0.227735,0.59461 -0.147355,0.99651 l 0.911539,1.05258 c 0.02865,0.24222 0.03713,0.53729 -0.200139,0.65557 l -1.586083,-0.1164 c -0.331825,0.25381 -0.518871,0.59072 -0.591821,0.92746 0.231079,0.40079 0.462153,0.80159 0.693227,1.20239 0.108985,0.34048 -0.0184,0.61267 -0.389517,0.60119 -0.54909,0.0503 -1.112873,-0.11478 -1.416099,-0.60537 -0.434563,0.39312 -0.763932,0.81223 -0.578203,1.19098 0.275179,0.48138 0.425063,0.98323 0.427899,1.5308 -0.08457,0.2805 -0.371967,0.42168 -0.832578,0.32226 -0.347645,-0.0721 -0.799049,-0.70584 -1.120446,-0.84672 l -0.655342,0.43368 c 0.134594,0.69518 0.228797,1.1974 0.1858,1.86759 -0.142804,0.26575 -0.343635,0.51902 -0.613168,0.42679 -0.469126,0.0346 -0.82082,-0.31758 -1.623215,-0.94857 0,0 -0.520924,0.51929 -0.520931,0.51873 0.06683,0.51417 0.133654,1.02835 0.200481,1.54252 -0.123541,0.43896 -0.516065,0.55982 -0.878631,0.50495 -0.5681,-0.30631 -0.989299,-0.69071 -1.384529,-1.30337 -0.182061,0.0942 -0.364127,0.1883 -0.546192,0.28245 -0.118028,0.56209 -0.118391,1.41648 -0.326379,1.63982 -0.266783,0.26769 -0.555405,0.28665 -0.912515,0.2188 -0.431679,-0.36666 -0.637603,-0.8673 -0.885231,-1.36262 -0.27276,-0.0667 -0.41003,0.0105 -0.644473,0.1641 -0.205911,0.51157 -0.307621,0.92445 -0.451932,1.44521 -0.242742,0.18117 -0.526824,0.30418 -0.811649,0.1767 z m 14.911797,-18.75297 c 0,-6.82702 -6.600729,-14.70473 -15.536829,-14.72349 -9.623964,0 -15.452792,9.16468 -15.496339,16.99712 0,7.05199 7.066427,14.10792 14.522741,14.10792 7.005553,-0.13934 16.510427,-4.59073 16.510427,-16.38155 z m -18.900583,15.06304 c 9.734558,-1.35271 16.61564,-2.93257 16.61564,-15.06401 -1.150426,-6.33551 -5.743833,-13.61212 -13.675214,-13.75928 -8.619604,0 -13.727198,7.61654 -13.727198,16.04528 0,0.55501 5.665178,10.04315 8.311282,12.00589 -4.29629,-1.69212 -8.977151,-6.03697 -8.977151,-12.09058 0,-7.66501 3.679891,-16.33269 14.774038,-16.33269 8.389456,0 14.890696,7.0307 14.890696,14.22239 0,14.18703 -11.437831,17.52164 -18.212093,14.97298 z M 42.60096,156.5293 c -1.061104,-0.39578 -2.610286,-3.01288 -2.782372,-4.67161 0.281803,0.54614 1.139881,0.6728 1.713561,0.6728 0.537419,0 1.161391,-0.45284 1.161391,-1.14794 0,-0.91335 -0.628101,-1.46073 -1.253058,-1.46073 -0.817317,0 -1.596524,0.56397 -1.820367,1.02778 0,-2.44768 0.358157,-4.11914 0.895305,-4.97704 -0.06308,0.47908 0.224934,0.93128 0.454639,0.99283 1.101691,0.2952 1.51942,0.48378 3.192568,0.57267 -0.493401,1.1285 -0.804756,2.09054 -0.632133,2.95947 0.306769,1.14488 0.616233,1.99191 1.373331,2.71268 0.143759,-0.0361 0.319583,-0.0628 0.463342,-0.0989 -0.781765,-1.10195 -1.15169,-2.53909 -1.15169,-3.66825 0,-0.65275 -0.05285,-1.06977 -0.05285,-1.905 0.03984,-1.55563 2.765337,-5.19345 5.954468,-5.19345 2.802144,0 6.297652,1.77154 6.297652,6.63494 0,-4.19285 -3.372873,-5.19955 -5.286377,-5.28049 -3.294272,0 -5.391362,2.54012 -5.391362,5.71638 0,2.76303 2.912865,5.09361 5.381636,5.09361 0.873788,0 1.181614,-0.0312 2.175173,-0.35091 -0.991213,0.97462 -2.210048,0.87945 -3.272128,1.08492 -2.751763,0.5321 -4.205333,-2.09756 -4.742199,-1.94772 -1.144742,0.22979 -2.260338,0.9487 -2.783793,1.78174 -0.09703,0.45192 -0.01549,0.71725 0.105263,1.45222 z m 8.02584,-15.14752 c 0,0 0.129744,-2.52999 -0.518741,-3.41509 1.592952,-0.16238 2.590208,0.0435 3.586144,0.4314 z m -15.652878,5.98624 c -0.286586,-0.26487 -0.556191,-0.50841 -0.814784,-0.494 0.24604,0.10893 0.43166,0.28641 0.626914,0.49458 0.06487,-4e-4 0.12165,-3.8e-4 0.18787,-5.8e-4 z m 34.525262,-6.09683 c -0.332374,-0.0719 -0.566152,-0.26889 -0.861564,-0.44591 0.08638,-0.65745 0.178893,-1.21084 0.27174,-1.73327 -0.185552,-0.212 -0.313049,-0.27531 -0.580816,-0.27531 -0.467382,0.42929 -0.849972,0.86973 -1.466853,1.02445 -0.218742,-0.14475 -0.437478,-0.28951 -0.656215,-0.43427 -0.01335,-0.7251 0.214206,-1.22481 0.438719,-1.89362 -0.197179,-0.17282 -0.3383,-0.19572 -0.565719,-0.21962 -0.547185,0.32524 -1.171178,0.57962 -1.702581,0.67773 -0.15232,-0.15898 -0.304634,-0.31797 -0.456948,-0.47695 0.154564,-0.79078 0.577057,-1.26613 0.924516,-1.87257 l -0.417378,-0.3921 c -0.679573,0.26103 -1.297061,0.38676 -1.852658,0.36949 -0.150036,-0.19671 -0.300072,-0.39341 -0.450107,-0.59012 0.195224,-0.64733 0.845943,-1.05931 1.295526,-1.69003 -0.085,-0.16437 -0.169993,-0.32873 -0.254989,-0.4931 -0.682475,0.23514 -1.425428,0.29449 -2.019087,0.23261 -0.129701,-0.26286 -0.273294,-0.49445 -0.273294,-0.78797 0.488414,-0.61902 0.95921,-0.99275 1.613394,-1.41263 l -0.250263,-0.48396 c -0.792061,-0.0451 -1.411928,-0.13345 -1.963207,-0.39835 l 0.04974,-0.93706 c 0.58823,-0.33589 1.073246,-0.4828 1.693333,-0.67905 0.01709,-0.17537 0.03417,-0.35073 0.05126,-0.5261 -0.719925,-0.11824 -1.58086,-0.38512 -2.040922,-0.72208 -0.02929,-0.34367 0.01458,-0.65985 0.10261,-0.98822 0.793149,-0.25695 1.351781,-0.43108 2.093941,-0.5475 -0.03595,-0.14447 -0.07189,-0.28894 -0.10784,-0.43341 -0.576668,-0.26774 -1.155765,-0.5767 -1.699369,-0.97171 l 0.253861,-0.97464 c 0.699147,-0.16755 1.418027,-0.12392 2.131665,-0.1288 l 0.03775,-0.2572 0.03775,-0.25721 c -0.616118,-0.35862 -1.045861,-0.8769 -1.495614,-1.41409 0.01797,-0.21095 0.170484,-0.52845 0.350198,-0.78083 0.695698,-0.03 1.364655,0.23036 2.031863,0.40365 0.166667,-0.15876 0.309129,-0.33559 0.411939,-0.49095 -0.461704,-0.52731 -0.916069,-0.99341 -1.179034,-1.6851 0.143958,-0.17109 0.287916,-0.34217 0.431875,-0.51326 0.811835,-0.0212 1.326532,0.35385 2.059797,0.50764 0.158071,-0.1136 0.207481,-0.20438 0.304648,-0.38594 -0.30039,-0.55066 -0.50121,-1.10078 -0.605548,-1.71265 0.147428,-0.17521 0.294856,-0.35041 0.442284,-0.52562 0.692722,0.14066 1.290844,0.55776 1.892999,0.91372 0.12939,-0.10477 0.258775,-0.20954 0.38816,-0.31431 -0.132757,-0.44899 -0.3485,-1.33662 -0.3485,-2.00664 l 0.669087,-0.2952 c 0.472763,0.24925 1.039467,0.89147 1.405246,1.28591 l 0.550334,-0.1932 c -0.058,-0.59844 -0.01522,-1.47317 0.09616,-2.06816 0.23609,-0.0635 0.472179,-0.12707 0.708269,-0.1906 0.517064,0.40909 0.833839,0.96619 1.185334,1.51187 0.252788,0.003 0.417858,-0.0504 0.631041,-0.21015 0.0513,-0.70101 0.174206,-1.02388 0.348964,-1.64761 0.189697,0.0993 1.249087,0.91974 1.249087,0.91974 0.144515,0.20862 0.248514,0.44661 0.418484,0.64321 l 0.390379,5e-5 c 0.535736,0.42283 1.458913,1.2333 2.017124,1.74964 l -5.055068,0.0768 -0.225756,0.22521 1.126609,3.25881 -2.187783,1.16672 -1.680588,-3.48089 -5.287475,7.43603 c 0.04567,0.0127 3.479364,0.47321 3.479679,0.46989 l -0.26226,2.43209 c 0,0 -3.190683,-0.30409 -3.190368,-0.30745 l -0.4338,0.41903 c -0.113414,1.68597 2.167007,7.02657 3.431515,7.57633 0,0 2.135831,-2.3337 2.139991,-2.53247 -1.133972,-1.19511 -1.727472,-3.23609 -1.683884,-4.43653 l 0.69771,-0.55033 c 0.65833,1.66273 1.408405,3.32242 2.276467,4.49517 -0.207857,0.20217 -0.62544,0.29677 -0.786498,0.24607 -0.05962,0.19729 -0.139486,0.42505 -0.16514,0.57255 0.441132,0.44227 1.103491,0.91101 1.699338,1.31441 0.112918,0.33754 -0.260197,0.41027 -0.547991,0.2442 -0.455895,-0.2351 -0.994292,-0.60613 -1.327897,-0.94586 -0.422389,0.46583 -1.187956,1.22058 -1.703412,1.81351 0.515691,0.51815 1.117207,0.92377 1.710314,1.34672 l 1.924511,3.13747 c -0.08786,-0.0483 -0.182372,-0.0806 -0.274308,-0.1193 -0.455947,0.54824 -0.978178,1.02084 -1.404477,1.35913 z m 8.596671,-2.88051 c -0.578457,-0.582 -1.503002,-2.54111 -1.621757,-3.64787 -0.364335,0.18625 -2.845159,0.44217 -4.113982,-0.30806 0.211053,-0.25248 0.422101,-0.50497 0.633149,-0.75745 2.109441,-0.13875 3.992873,-0.26367 5.76706,-1.72793 1.57167,-1.40247 2.092461,-2.54262 2.092461,-5.8566 0,0 -0.668739,-1.66228 -1.120886,-2.26054 l 0.09954,-0.003 c 1.590814,1.61493 1.58015,3.17571 1.409275,4.445 0.385139,-1.19451 -0.342866,-3.96097 -1.337397,-5.31113 0.114411,-0.11442 0.228828,-0.22884 0.343245,-0.34325 1.528306,0.80161 2.492653,3.268 2.130247,4.41106 1.06062,0.17543 2.121495,0.34931 3.182363,0.52323 l 0.668694,-0.34092 c 0.281392,-1.0264 -0.159897,-2.1696 -0.305551,-3.21213 l 0.189803,-0.001 0.357588,-0.12553 c 0.255663,0.35004 0.643111,2.5367 0.352886,3.50814 -0.301041,0.16482 -0.753226,0.19814 -1.016794,0.203 0.09172,0.0207 0.183437,0.0415 0.275156,0.0622 0.155112,0.81148 0.01127,1.71795 -0.190488,2.42554 l -3.770483,-0.32084 c -0.09782,1.73541 -1.381125,3.76319 -3.056026,4.01965 0.03567,0.25934 0.07133,0.51869 0.107,0.77803 -0.667055,0.22577 -1.334109,0.45155 -2.001164,0.67732 0.132085,0.62607 0.616458,1.45617 0.634908,2.04661 0.780331,0.0385 1.52192,-0.34523 2.212121,-0.49067 -0.01769,0.17828 -0.03537,0.35655 -0.05306,0.53483 -0.763607,0.26671 -1.338356,0.56088 -1.867909,1.07218 z m 3.010946,-0.84074 c 0.0027,-0.0716 0.0055,-0.14327 0.0082,-0.2149 l 4.747302,-6.31068 c 0.155348,-0.0803 0.310697,-0.16067 0.466045,-0.241 0.223444,2.37709 -3.372699,7.10205 -5.221547,6.76658 z m -12.748655,-12.37907 -0.628689,-0.32446 c 0.40636,-1.69083 1.622681,-3.20147 2.95479,-3.97532 l 0.96168,0.82005 z m 12.335636,-2.9966 -2.39392,-1.82424 c 2.64e-4,9e-4 1.355241,-1.88319 1.355241,-1.88319 l 0.524188,0.6187 -1.006659,1.31145 c 0.641564,0.24283 1.466631,0.84131 1.68007,1.23997 0.061,0.18549 -0.03627,0.45417 -0.15892,0.53731 z m -6.910658,-2.01352 c 1.250444,-0.28672 2.781445,-0.1804 3.955077,0.3542 0.14573,0.32541 0.261553,0.65536 0.17457,1.02969 -1.71069,0 -3.441675,-0.69592 -4.129647,-1.38389 z"
         id="path166"
         sodipodi:nodetypes="ccccccccccccccccccccccccccccccccccccccccccccccccccccccccccccccccccccccccccccccccccccccccccccccccccccccccccccccccccccccccccccccccccccccccccccccccccccccccccccccccccccccccccccccccccccccccccccccccccccccccccccccccccccccccccccccccccccccccccccccccccccccccccccccccccccccccccccccccccccccccccccccccccccccccccccccccccccccccccccccccccccccccccccccccccccccccccccccccccccccccccccc" />
      <path
         style="fill:#406a42;stroke-width:0.0846667"
         d="M 10.577086,142.67583 C 10.68173,120.39868 30.684013,104.91738 50.201181,104.91738 29.525113,115.01983 25.900219,130.69362 25.728545,143.26225 Z"
         id="path164"
         sodipodi:nodetypes="cccc" />
      <path
         style="fill:url(#linearGradient1024);stroke-width:0.0846667;fill-opacity:1"
         d="m 51.294491,167.94174 c -0.40729,-0.69914 -0.567321,-1.48925 -0.926048,-2.20133 -0.157334,-0.0909 -0.286464,-0.0831 -0.507842,0 -0.307903,0.72223 -0.717324,2.00981 -1.111532,2.032 -0.290743,0.0301 -0.554516,-0.0299 -0.831613,-0.1042 -0.229682,-0.75173 -0.332447,-1.52856 -0.406108,-2.20328 -0.164781,-0.14389 -0.314844,-0.14559 -0.522063,-0.147 -0.504118,0.58186 -0.976013,1.33429 -1.500673,1.77675 -0.255065,-0.0869 -0.510134,-0.17382 -0.765203,-0.26073 -0.117952,-0.75188 -0.10796,-1.50767 -0.10796,-2.26592 -0.03733,-0.20457 -0.188245,-0.28822 -0.345555,-0.2661 -0.665175,0.42784 -1.267677,1.108 -1.902564,1.45744 -0.210541,-0.088 -0.421087,-0.17594 -0.631632,-0.26391 -0.166832,-0.29817 -0.129217,-0.52021 -0.05282,-0.81237 0.329182,-0.20578 0.392555,-0.3057 0.392555,-0.66468 0.763212,0.73967 1.634335,0.37626 2.394717,0.0177 l 0.406033,0.102 c -0.195966,0.61229 0.0016,1.25282 0.18383,1.78534 0.155866,0.17501 0.828617,0.3356 1.078548,0.0576 0.302031,-0.33375 0.604061,-0.66751 0.906091,-1.00126 0.251394,-0.0815 0.423625,-0.0337 0.599934,0.1264 0.157115,0.56321 0.31608,0.98169 0.511156,1.51628 0.262661,0.22877 0.828196,0.20201 1.186966,-0.0769 l 0.494968,-1.18534 c 0.229144,-0.0485 0.434901,-0.0697 0.652351,0 0.414881,0.64772 0.406386,1.20676 1.015797,1.65065 0.276359,-0.0156 0.550103,-0.0409 0.811206,-0.1746 0.132479,-0.53352 0.155997,-1.04027 0.452378,-1.44675 0.248587,-0.19038 0.361314,-0.27284 0.644473,-0.1641 0.298526,0.48019 0.550336,1.00667 0.885231,1.36262 0.381616,0.0425 0.615176,-0.001 0.912519,-0.2188 0.164827,-0.12197 0.037,-1.03796 0.32638,-1.63982 0.147473,-0.14924 0.318222,-0.25241 0.546191,-0.28245 0.421241,0.48928 0.921972,1.03126 1.38453,1.30337 0.336359,-0.0306 0.738079,-0.14394 0.87863,-0.50495 -0.06683,-0.51417 -0.133654,-1.02835 -0.200481,-1.54252 0.111957,-0.34982 0.279075,-0.42649 0.520931,-0.51873 0.592785,0.25858 1.0192,0.94858 1.623215,0.94858 0.290008,0.0354 0.430461,-0.23231 0.61317,-0.4268 -0.186049,-0.54743 -0.303594,-1.21778 -0.1811,-1.8707 0.149171,-0.25896 0.359493,-0.42006 0.650642,-0.43057 0.665213,0.21337 0.795519,1.1193 1.628628,0.77122 l 0.324395,-0.24676 c -0.0325,-0.74603 -0.326562,-1.33436 -0.597272,-1.8628 0.139608,-0.38185 0.363242,-0.72598 0.747576,-0.85898 0.483141,0.49467 0.808952,0.60728 1.41609,0.60538 0.222788,-0.019 0.320402,-0.35104 0.389516,-0.60119 -0.231072,-0.4008 -0.46215,-0.80159 -0.693227,-1.20239 0.0847,-0.46541 0.219742,-0.74859 0.591831,-0.92746 l 1.586084,0.1164 c 0.123099,-0.20882 0.178617,-0.44542 0.200138,-0.65557 l -0.911539,-1.05258 c -0.148298,-0.40896 -0.08167,-0.74922 0.147356,-0.9965 0.539334,-0.15104 1.026923,-0.26461 1.640023,-0.2242 0.05424,-0.16368 0.108479,-0.32735 0.16272,-0.49103 -0.119569,-0.3845 -0.805264,-0.78016 -1.207898,-1.17023 -0.16798,-0.27444 -0.02493,-0.82559 0.1753,-1.00574 0.49507,-0.0573 0.910367,-0.14158 1.333775,-0.44423 0.06023,-0.21418 0.133331,-0.51583 0.05726,-0.83455 -0.391776,-0.21069 -0.783548,-0.42139 -1.17532,-0.63209 -0.243676,-0.40872 -0.203871,-0.8522 -0.01001,-1.09006 0.526757,-0.18949 1.0162,-0.42246 1.481666,-0.72831 v -0.47458 c -0.59444,-0.58723 -1.331105,-0.54043 -1.862666,-0.98158 8.67e-4,-0.23298 0.0017,-0.46596 0.0026,-0.69894 0.307169,-0.41561 0.999552,-0.72738 1.405903,-0.9314 0.103025,-0.28607 -0.05695,-0.43266 -0.152076,-0.72091 -0.647944,-0.24682 -1.597184,-0.14343 -1.841784,-0.3652 -0.03555,-0.16188 -0.07111,-0.32375 -0.10666,-0.48563 -0.188313,-0.53057 0.59457,-1.18358 0.700464,-1.73012 -0.109626,-0.21167 -0.21925,-0.42333 -0.328875,-0.635 h 1.332064 c 0.149405,0.24734 0.258348,0.46114 0.258348,0.74587 -0.508325,0.52749 -1.016651,1.05497 -1.524977,1.58246 0,0 -0.07323,0.27168 0.0433,0.42334 0.795983,0.0185 1.651214,0.11362 2.32663,0.30237 0.09389,0.28258 0.107167,0.57464 0.12872,0.86888 -0.478152,0.56911 -1.32828,0.84798 -1.747903,1.31614 0,0 -0.03037,0.31083 0.05457,0.47052 0.779827,0.15156 1.59471,0.38604 2.251396,0.66465 -0.01669,0.31318 -0.03337,0.62636 -0.05006,0.93954 -0.60036,0.33573 -1.290746,0.59938 -1.862667,0.78865 0,0 -0.230689,0.22773 -0.16098,0.45262 0.611455,0.52278 1.449525,0.77229 2.073858,1.11599 l -0.05022,0.94189 c -0.692251,0.36822 -1.588405,0.28976 -2.229315,0.58459 -0.106114,0.25794 -0.03754,0.49646 0.152153,0.63894 0.599659,0.279 1.061574,0.72104 1.54414,1.16022 -0.0035,0.34447 -0.09842,0.67463 -0.24146,0.89353 -0.707983,0.15787 -1.481446,0.16618 -2.112647,0.16541 -0.22241,0.17865 -0.213682,0.45046 -0.2032,0.67734 0.540489,0.27928 1.060084,0.88877 1.450976,1.31233 -0.02096,0.35805 -0.17363,0.61338 -0.363441,0.90307 -0.658848,-0.0387 -1.317695,-0.0773 -1.976543,-0.116 -0.179812,0.26344 -0.254348,0.47477 -0.296333,0.75306 0.443029,0.42187 0.919352,1.17279 0.931333,1.68184 l -0.482692,0.52848 c -0.711822,-0.11157 -1.353979,-0.3458 -1.995866,-0.65593 -0.243028,0.11496 -0.391227,0.21835 -0.484775,0.4186 0.228757,0.73974 0.819056,1.5272 0.846662,2.24425 -0.197624,0.15768 -0.395242,0.31536 -0.592861,0.47305 -0.720752,-0.17533 -1.393766,-0.6468 -2.033199,-1.04195 -0.181354,-0.0661 -0.355033,0.0467 -0.421928,0.27646 0.246015,0.43204 0.64163,2.04559 0.502896,2.23976 -0.265878,0.2674 -0.564426,0.46532 -0.871472,0.46567 -0.581864,-0.37149 -1.171664,-0.78778 -1.610431,-1.27 -0.322806,-0.0346 -0.391245,0.0142 -0.540238,0.28046 l 0.08772,2.16286 c -0.246561,0.2338 -0.559291,0.37151 -0.847002,0.35072 -0.565629,-0.50525 -1.093223,-1.12363 -1.520814,-1.62798 -0.177508,-0.0772 -0.3289,-0.0182 -0.52055,0.1144 -0.201817,0.35252 -0.08448,1.56545 -0.25874,2.21546 -0.234084,0.27978 -0.685005,0.37488 -0.989805,0.2477 -0.425096,-0.61827 -0.843141,-1.30114 -1.139698,-1.88079 -0.167528,-0.0188 -0.279052,0.011 -0.425458,0.0876 -0.322147,0.35945 -0.335813,1.68528 -0.798763,2.19552 -0.240923,0.0707 -0.526165,0.0794 -0.813979,5.2e-4 z m -1.387366,-3.30283 c -7.888709,0 -14.542062,-7.12357 -14.542062,-14.06865 0.03264,-11.81312 7.888495,-17.0364 15.51566,-17.0364 8.623122,0 15.536898,7.07217 15.536898,14.72405 0,11.45793 -8.251333,16.381 -16.510496,16.381 z m 15.822006,-16.29096 c 0,-7.28106 -6.850637,-14.22286 -14.890666,-14.22286 -8.605131,0 -14.774038,6.41083 -14.774038,16.3327 0,8.99772 10.351018,12.70125 8.531274,11.85406 -2.039028,-1.23882 -2.845781,-1.75058 -3.930074,-3.01897 -2.287043,-2.43968 -3.505081,-5.9639 -3.935331,-8.75049 0,-8.3099 4.911274,-16.04529 13.727198,-16.04529 8.478437,0 13.728974,7.0976 13.728974,15.02929 0,7.92312 -5.683035,14.09722 -15.210643,14.09722 -2.085709,-0.43993 -2.085709,-0.43993 0.85812,0.20425 8.067981,0 15.631561,-4.79783 15.895186,-15.47991 z m -11.107866,11.01516 c 0.352065,-0.35206 -0.471691,-3.03088 -1.238226,-3.44111 -2.238883,0.21695 -4.596818,0.0399 -6.277901,-1.31418 3.220192,0.83815 4.536884,0.33461 6.18868,-0.44967 2.23629,-1.29112 3.120929,-2.57764 3.120929,-5.1786 -0.586078,-3.79271 -2.876015,-6.63494 -6.297652,-6.63494 0.531472,-0.21616 0.509727,-0.96132 0.509727,-0.96132 0,0 3.055385,-2.97533 3.067381,-2.9852 -9.323688,-2.49827 -14.07405,6.44731 -14.07405,12.54063 0.436499,-0.70634 0.747305,-1.0169 1.820333,-1.0169 -0.666256,0 -1.334249,0.50762 -1.334249,1.35921 0,0.70477 0.689363,1.24946 1.425916,1.24946 -1.14279,0 -1.457722,-0.23793 -1.713531,-0.67096 0.311699,1.30333 0.824369,3.12375 2.782342,4.66977 -0.343175,-1.06175 -0.105264,-1.45223 -0.105264,-1.45223 0.846332,4.18652 9.008849,6.90856 12.125568,4.28603 z m -9.71744,-6.15293 c -0.943436,-0.89588 -1.050255,-1.50691 -1.37333,-2.71264 -0.260157,-1.30843 0.333526,-2.27077 0.632133,-2.95947 0,0 0.05285,1.32073 0.05285,1.905 0,1.40533 0.610182,2.92087 1.151689,3.66824 -0.152267,0.081 -0.295891,0.0988 -0.463342,0.0989 z m 16.233669,0.27517 c 1.952253,-3.22855 0.102752,-11.02707 -2.570147,-12.4671 -0.121686,-0.0703 -0.351486,-0.12773 -0.479212,0 -0.696936,0.61505 -1.535213,1.4855 -2.015378,2.40287 -0.163725,0.28358 -0.130593,0.43642 0.02566,0.59267 1.852515,2.44266 2.323127,5.87676 1.466619,7.86469 -0.04654,0.1737 0.108186,0.30422 0.254786,0.38886 l 2.835242,1.36625 c 0.216301,0.058 0.387805,0.0157 0.48243,-0.14824 z m -21.13833,10.23083 c -0.225737,-0.16325 -0.374772,-0.36347 -0.548376,-0.56576 -0.0066,-0.53903 0.227807,-1.0496 0.399084,-1.38896 0.209619,0.11791 0.359884,0.27243 0.516034,0.48971 0.683272,0.23476 1.160162,0.12415 1.709548,0.2839 l -0.05664,0.64546 c -0.0018,-0.13095 -0.04951,-0.30676 -0.146558,-0.3182 H 41.32187 c -0.467497,0.33511 -0.718592,0.4839 -1.322704,0.85385 z m -1.998112,-2.31596 c -0.969213,-0.66824 -0.103055,-1.81911 0.152525,-2.71466 0.259156,0.17002 0.257004,1.74564 1.047711,1.806 0.647883,-0.0665 0.649997,0.57019 0.417522,0.97585 0.09535,-0.32928 -0.07256,-0.60047 -0.321756,-0.59381 -0.430919,0.17449 -0.813006,0.33041 -1.296002,0.52662 z m -1.894598,-2.52162 c -0.442802,-0.18703 -0.661917,-0.47251 -0.653239,-0.89996 0.205521,-0.4505 0.451533,-0.6191 0.797281,-1.00053 0.07503,-0.20227 0.08722,-0.38395 0.22243,-0.381 0.108556,0.24842 0.01988,0.56673 -0.0072,0.84908 -0.0051,0.22342 0.508771,0.71296 0.844253,0.84425 0.106841,0.001 0.213682,0.003 0.320523,0.004 0.125898,0.11183 0.266697,0.19955 0.409236,0.28755 -0.133084,0.0557 -0.260685,0.0801 -0.409236,0.0729 -0.538853,-0.10478 -1.066433,0.16317 -1.523998,0.22372 z m 0.03073,-2.60408 c -0.0285,-0.0992 -0.09862,-0.16436 -0.15694,-0.24442 -0.681525,-0.0245 -1.48341,-0.0376 -2.144615,-0.2238 0.121947,-0.0451 0.243893,-0.0903 0.36584,-0.1354 -0.007,-0.35004 0.02787,-0.62733 0.174746,-0.92731 0.354922,-0.3256 0.868997,-0.87229 1.086685,-0.7714 -0.0834,0.19962 -0.166812,0.39923 -0.25022,0.59885 -0.105727,0.79411 0.456417,1.03914 1.105523,1.36754 0.0308,0.19337 -0.05373,0.23673 -0.181019,0.33594 z m -0.960519,-2.62472 c 0,-0.21087 -0.2229,-0.52431 -0.35354,-0.52431 -0.432995,0.0268 -0.857499,-0.0472 -1.284759,-0.1058 -0.126329,-0.45338 -0.07878,-0.85896 0.0091,-1.24894 0.394712,0.0543 0.394569,-0.1694 0.738693,-0.1694 0.01161,0.19523 -0.09215,0.36755 0,0.58568 0.398441,0.44686 1.119929,1.0173 1.016,1.35166 z m -1.906537,-4.58145 c -0.09474,-0.12629 -0.02666,-0.31903 0.15914,-0.43391 0.785349,-0.12661 1.500582,0.51525 1.500582,1.31603 0.01141,0.33391 -0.0088,0.53478 -0.0088,0.92399 0,-0.76139 -1.008765,-1.39472 -1.650896,-1.80611 z m 1.515923,-1.70017 c -0.244206,-0.24243 -0.391984,-0.36459 -0.626914,-0.49457 0.358288,-0.0648 0.64858,0.20832 0.814784,0.494 -0.06488,4e-4 -0.121635,3.7e-4 -0.18787,5.7e-4 z m 39.877989,-4.91066 c -0.458415,-0.60146 -0.504266,-1.30241 -0.713468,-1.86369 -0.135297,-0.16357 -0.401723,-0.0837 -0.599662,-0.0837 -0.205001,0.69623 -0.553119,1.23035 -0.921587,1.66243 -0.287259,0.0437 -0.515857,-0.067 -0.798998,-0.1432 -0.312108,-0.33353 -0.298775,-0.7653 -0.298775,-1.21283 l 0.03858,-0.61874 -0.192161,-0.1664 -1.924511,-3.13747 c -0.617018,-0.39272 -1.244696,-0.80841 -1.710629,-1.34346 0.575152,-0.71833 0.992465,-1.19793 1.576553,-1.81351 0,0 0.123143,-0.14933 0.25372,0 0.42888,0.2736 0.769648,0.53823 1.112196,0.82929 0.319114,0.20598 0.569997,0.22375 0.636831,-0.12763 -0.689143,-0.32264 -1.417628,-0.83804 -1.699338,-1.31441 0.0082,-0.21922 0.06091,-0.36098 0.16514,-0.57255 0.308107,0.0182 0.577571,-0.10792 0.786498,-0.24607 -1.123708,-1.16909 -2.107118,-3.11195 -2.276467,-4.49518 0,0 -0.697395,0.54708 -0.69771,0.55034 0.09026,1.55551 0.807917,3.31464 1.683884,4.43653 -0.26445,0.76314 -1.237488,1.85821 -1.822002,2.50607 l -0.635977,0.0528 c -2.094178,-1.39677 -3.468132,-5.61459 -3.113527,-7.60264 0.02788,-0.29156 0.09778,-0.42391 0.4338,-0.41902 l 3.190368,0.30745 c -0.06291,-0.90808 0.01669,-1.68375 0.26226,-2.43213 l -3.479679,-0.46999 c 0.08234,-3.29854 2.897584,-6.43477 5.287475,-7.43602 0,0 1.680903,3.47766 1.680588,3.48088 0.408429,-0.37707 1.47858,-0.91003 2.188098,-1.16994 l -1.126924,-3.25558 c -0.0037,-0.13107 0.06741,-0.18856 0.225755,-0.22522 2.069322,-0.3937 4.044995,-0.51411 5.055384,-0.0801 0.678142,0.6168 2.021143,2.01861 2.425348,2.41299 0,0 -1.355241,1.88319 -1.354977,1.88409 1.063555,0.48181 1.640822,1.03574 2.393656,1.82334 0.104631,-0.19407 0.153063,-0.37952 0.15892,-0.53731 -0.487494,-0.52065 -1.190339,-0.85877 -1.680187,-1.23867 l 1.006776,-1.31275 c 1.635843,1.94822 2.646347,3.39582 3.594402,4.91547 l 2.148624,5.1e-4 c 0.2055,0.81571 0.696143,2.21587 0.305428,3.21466 -0.222895,0.11364 -0.445795,0.22728 -0.668694,0.34091 -1.060952,-0.17341 -2.121659,-0.3483 -3.182363,-0.52322 0.03322,-1.71431 -0.598858,-3.51359 -2.130247,-4.41107 -0.114412,0.11442 -0.228828,0.22883 -0.343244,0.34325 1.193308,1.01564 1.987854,3.55795 1.337397,5.31114 0.162887,-2.06096 -0.308677,-2.94445 -1.409274,-4.445 H 79.7319 l 0.418064,0.55033 c 0,0 0.702822,0.35526 0.702822,1.71021 0,-1.56165 -2.389742,-4.32489 -5.672784,-4.32489 -2.836172,0 -5.687023,1.81204 -5.710746,5.61947 0,5.09583 5.140972,6.95808 9.291069,4.56202 -0.5099,0.52568 -1.243065,0.88849 -1.844603,1.18195 0.326911,0.0474 1.239287,-0.26372 1.756387,-0.57866 -0.811834,1.39376 -4.245182,1.69488 -5.678935,1.12684 -0.211054,0.25248 -0.422102,0.50497 -0.63315,0.75745 1.035716,0.55137 3.059548,0.57877 4.113983,0.30807 l 1.621748,3.64797 c 0.572955,-0.58626 1.053274,-0.85229 1.867945,-1.07114 0.01769,-0.17828 0.03537,-0.35655 0.05306,-0.53483 -0.640567,0.27665 -1.875625,0.88382 -2.212057,0.48732 -0.182986,-0.57726 -0.784489,-1.78079 -0.634973,-2.04321 0.667055,-0.22577 1.334109,-0.45155 2.001164,-0.67732 -0.03567,-0.25934 -0.07133,-0.51869 -0.107,-0.77803 1.672435,-0.92062 2.787457,-2.58109 3.056026,-4.01965 l 3.770482,0.32083 c 0.212571,-0.89275 0.272949,-1.59527 0.190487,-2.42553 -0.09172,-0.0207 -0.183437,-0.0415 -0.275155,-0.0622 0.347435,-0.0366 0.722421,-0.098 1.016793,-0.2031 0.07387,-1.09565 -0.01492,-2.58472 -0.352819,-3.51144 l 1.905207,-0.64896 c 0.526217,1.3e-4 0.946327,0.0491 1.367832,0.27472 v 0.65561 c -0.491001,0.48663 -0.986681,0.74332 -1.608667,1.04365 v 0.57756 c 0.793391,0.17643 1.341333,0.36271 2.031365,0.63821 l 6.78e-4,0.76906 c -0.688373,0.36541 -1.242726,0.53622 -1.955499,0.7471 0.01683,0.19149 0.03367,0.38297 0.0505,0.57446 0.474757,0.18233 1.155705,0.53884 1.735666,0.94765 v 0.70886 c -0.421518,0.36484 -1.523627,0.35045 -2.201338,0.53858 v 0.4842 c 0.595012,0.29745 1.045114,0.77376 1.524,1.2237 0.03956,0.27701 -0.08379,0.49003 -0.19524,0.73463 -0.705617,0.18319 -1.433245,0.056 -2.151052,0.009 -0.06536,0.14344 -0.130708,0.28687 -0.19606,0.43031 0.522305,0.50266 0.943355,1.03347 1.271541,1.6719 -0.1182,0.20033 -0.236395,0.40066 -0.35459,0.60099 -0.756143,0.0861 -1.428055,-0.20765 -2.133731,-0.43813 -0.15415,0.17564 -0.22021,0.27891 -0.22021,0.49996 0.460812,0.51585 0.679909,1.15296 0.874398,1.80273 l -0.395915,0.42144 c -0.794916,-0.0704 -1.464048,-0.45981 -2.019955,-0.78216 -0.115835,0.11584 -0.231676,0.23168 -0.347517,0.34751 0.182587,0.67887 0.449656,1.32536 0.449656,2.03102 -0.187495,0.19172 -0.359077,0.27066 -0.564566,0.35096 -0.639802,-0.24676 -1.248788,-0.6872 -1.784118,-1.18795 -0.125873,0.10193 -0.251746,0.20385 -0.377619,0.30578 0.145371,0.91703 0.197304,1.37125 0.09487,2.0434 -0.273922,0.17445 -0.528229,0.1934 -0.840462,0.1934 -0.333532,-0.2476 -0.987001,-1.11535 -1.10011,-1.35467 -0.340983,-0.0484 -0.46466,0.0534 -0.692476,0.28124 -0.0284,0.31591 -0.100502,1.66686 -0.344266,1.92009 -0.232978,-6.7e-4 -0.465955,-0.001 -0.698933,-0.002 -0.369596,-0.40749 -0.761227,-1.06368 -1.000018,-1.69917 -0.173642,0.0171 -0.347283,0.0341 -0.520925,0.0512 -0.191757,0.73683 -0.268853,1.27556 -0.752234,1.82033 -0.222321,2.6e-4 -0.433555,-0.003 -0.655876,-0.003 z m 11.664229,-11.67396 c -0.155348,0.0803 -0.310697,0.16067 -0.466045,0.241 -0.546701,2.66975 -2.967394,5.07876 -4.747302,6.31068 -0.0027,0.0716 -0.0055,0.14327 -0.0082,0.2149 2.038105,-0.41548 5.100578,-4.41925 5.221547,-6.76658 z m -14.682326,-9.09259 -0.96168,-0.82005 c -1.372753,1.04454 -2.607973,2.4735 -2.95479,3.97532 -1.6e-5,1.7e-4 0.628689,0.32447 0.628689,0.32447 0.418592,-0.99874 1.79236,-2.9324 3.287781,-3.47974 z m 6.266837,-0.14613 c -0.02025,-0.37748 -0.08858,-0.7319 -0.17457,-1.02969 -1.185085,-0.46131 -2.672067,-0.57618 -3.955077,-0.3542 1.333761,0.48222 2.693584,1.32932 4.129647,1.38389 z m -43.70075,20.38998 c 0.08912,-0.0395 0.122389,-0.0969 0.253426,-0.0702 0.894946,0.0897 1.441958,0.17968 2.166237,0.30733 -0.05851,0.10438 -0.197244,0.16774 -0.197244,0.16774 -0.82594,0.0692 -1.587507,-0.20734 -2.222419,-0.40488 z m 30.742906,-0.83197 c -0.198814,-0.24559 -0.273475,-0.34842 -0.273475,-0.65365 0.508966,-0.57998 0.931333,-0.97953 0.931333,-1.67771 -0.146129,-0.21505 -0.292257,-0.43009 -0.438386,-0.64514 0.321015,-0.0511 0.641267,-0.16798 0.918965,-0.1684 0.08572,0.13104 0.171434,0.26208 0.257151,0.39312 -0.07845,0.26869 -0.156908,0.53737 -0.235361,0.80606 -0.316106,0.46423 -0.632214,0.92847 -0.948322,1.3927 0.02309,0.23603 0.186455,0.34185 0.272046,0.51702 -0.192276,0.1018 -0.331202,0.0722 -0.483951,0.036 z M 37.50346,139.65356 c -0.573658,-0.0979 -1.115018,-0.31527 -1.735718,-0.41339 0.05787,-0.0579 0.141086,-0.13211 0.198959,-0.18998 0.770419,0.013 1.495905,0.38953 2.133006,0.61288 l -0.596245,-0.009 z m 25.984971,-1.00604 c -0.134759,-0.0279 -0.456266,-0.35954 -0.443114,-0.59419 0.275606,-0.65422 0.704811,-1.119 0.704811,-1.78418 -0.249819,-0.28088 -0.481855,-0.40454 -0.846724,-0.58596 0.366433,-0.0913 0.696494,-0.1398 1.159145,-0.0837 0.09341,0.10322 0.18683,0.20644 0.280245,0.30966 -0.03517,0.78247 -0.619722,1.45175 -0.846667,2.09681 -0.03442,0.27711 0.240826,0.3656 0.292757,0.53267 z m -24.098467,-1.27 c -0.496719,-0.2479 -1.0009,-0.44316 -1.489365,-0.59368 -0.13078,-0.21166 -0.258035,-0.2174 -0.227805,-0.44343 0.819843,0.0398 1.882585,1.19099 2.353678,0.64516 -0.09698,0.31406 -0.121992,0.47565 -0.636508,0.39195 z m 22.029752,-0.78567 c -0.255205,-0.0545 -0.385409,-0.17835 -0.544179,-0.36965 0.100503,-0.56918 0.358863,-1.16316 0.538294,-1.74474 -0.101207,-0.16479 -0.540259,-0.56201 -0.838703,-0.64224 0.228101,-0.14243 0.440044,-0.28848 0.667296,-0.35557 0.209329,0.063 0.45374,0.28171 0.577834,0.4138 l -0.09831,0.62025 c -0.104379,0.47745 -0.368602,0.90816 -0.43239,1.44404 0.03273,0.38169 0.140737,0.41381 0.479279,0.4573 -0.138326,0.0798 -0.273555,0.14248 -0.349121,0.17681 z m -21.291592,-2.19987 c 0.03712,-0.1107 0.03286,-0.11404 0,-0.23097 0.522864,0.14936 1.263274,0.74396 1.725482,1.10067 0.11884,0.0167 0.183183,-0.009 0.362332,-0.0533 -0.131968,0.0832 -0.229454,0.19291 -0.330546,0.30729 -0.630607,-0.22084 -1.14879,-0.7105 -1.757268,-1.1237 z m 18.276422,0.01 c 1.39e-4,-0.42658 0.154149,-1.016 0.20448,-1.5851 -0.03876,-0.2348 -0.691026,-0.48648 -0.912624,-0.55117 0.188054,-0.14645 0.390283,-0.27043 0.592718,-0.39533 0.259316,0.0312 0.440609,0.11712 0.635,0.2784 0.04242,0.82501 -0.03461,1.6408 -0.107347,2.46088 0.109231,0.10996 0.358836,0.12086 0.488155,0.15107 -0.493359,0.21798 -0.839682,-0.0362 -0.900382,-0.35875 z m -13.934373,-0.15747 -0.837522,-0.85037 c -0.293772,-0.34616 -0.588716,-0.3411 -0.769142,-0.75938 0.03656,-0.12458 -0.01497,-0.36697 -0.01497,-0.36697 0.351811,0.26717 0.923178,0.78502 1.263209,1.13597 l 0.554614,0.57244 c -0.02744,0.1081 -0.07697,0.20493 -0.196189,0.26831 z m 11.321284,-0.85853 c 0.05588,-0.57895 -0.06378,-1.12364 -0.18406,-1.68451 -0.273879,-0.18549 -0.63901,-0.29213 -0.958332,-0.29213 0.147713,-0.21544 0.252012,-0.39335 0.477355,-0.55137 0.233544,-0.0281 0.440537,0.0409 0.662962,0.10053 0.431833,0.45804 0.338779,1.53626 0.340741,2.26054 0.124297,0.15131 0.390936,0.20913 0.536098,0.22789 -0.09015,0.0931 -0.219916,0.18055 -0.378918,0.2043 -0.287566,-0.004 -0.435229,-0.11113 -0.495846,-0.26525 z m -9.796786,-1.68697 c 0.02113,-0.19859 -0.02717,-0.40871 -0.08268,-0.59604 0.669294,0.5667 0.90443,1.18516 1.412736,1.79801 0.05003,0.18377 0.04916,0.32903 2.2e-5,0.49767 -0.555904,-0.64264 -0.827314,-1.2534 -1.330078,-1.69964 z m 6.938359,1.18219 c -0.06538,-0.59774 -0.240669,-1.13962 -0.476679,-1.68539 -0.271028,-0.0805 -0.531016,-0.1669 -0.813557,-0.16814 v -0.1694 h 0.82079 c 0.07872,-0.12791 0.09265,-0.2573 0.110513,-0.40225 0.256424,0.69426 0.514908,1.49355 0.613432,2.13792 0.211839,0.18041 0.478084,0.22983 0.741263,0.1264 -0.09854,0.39292 -0.65796,0.22715 -0.995762,0.16086 z m -2.818938,0.009 c -0.16183,-0.64842 -0.614566,-1.55269 -1.476965,-1.84586 0.153236,-0.005 0.306473,-0.0107 0.459709,-0.016 0.06237,-0.11653 0.124733,-0.23307 0.1871,-0.3496 0.548702,0.52355 0.785917,1.30664 1.035795,1.95827 0.193529,0.0819 0.370498,0.0584 0.555747,0 -0.03248,0.0847 -0.05345,0.16739 -0.08594,0.25206 -0.226096,0.002 -0.449387,0.001 -0.675446,0.001 z"
         id="path162"
         sodipodi:nodetypes="ccccccccccccccccccccccccccccccccccccccccccccccccccccccccccccccccccccccccccccccccccccccccccccccccccccccccccccccccccccccccccccccccccccccccccccccccccccccccccccccccccccccccccccccccccccccccccccccccccccccccccccccccccccccccccccccccccccccccccccccccccccccccccccccccccccccccccccccccccccccccccccccccccccccccccccccccccccccccccccccccccccccccccccccccccccccccccccccccccccccccccccccccccccccccccccccccccccccccccccccccccccccccccccccccccccccccccccccccccccccccccccccc" />
      <rect
         style="fill:#416b43;fill-opacity:1;stroke-width:0.264583"
         id="rect1008"
         width="15.126806"
         height="1.9953521"
         x="10.618981"
         y="142.06847" />
    </g>
  </g>
</svg>
