{
    "title": "Kuadrado Software | Pédagogie",
    "description": "Animations autour de la création de jeux vidéos, vulgarisation numérique. Découvrez nos initiatives pédagogiques.",
    "image": "https://kuadrado-software.fr/assets/images/brain.png",
    "open_graph": {
        "title": "Kuadrado Software | Pédagogie",
        "description": "Animations autour de la création de jeux vidéos, vulgarisation numérique. Découvrez nos initiatives pédagogiques."
    },
    "json_ld": {
        "@context": "https://schema.org",
        "type": "WebPage",
        "description": "Animations autour de la création de jeux vidéos, vulgarisation numérique. Découvrez nos initiatives pédagogiques.",
        "image": [
            "https://kuadrado-software.fr/assets/images/brain.svg",
            "https://kuadrado-software.fr/assets/images/brain.png",
            "https://kuadrado-software.fr/assets/images/game_studio_banner.png",
            "https://kuadrado-software.fr/assets/images/popularization_banner.png"
        ],
        "keywords": "Animations, pédagogie, éducation, vulgarisation, numérique, Ardèche, Rhone-Alpes, apprendre, learn, gamedev, coding, informatique, programmation, code, apprentissage, formation, activité, ado, adultes, adolescents, jeunesse",
        "name": "Kuadrado Software - Pédagogie",
        "url": "https://kuadrado-software.fr/education"
    }
}